Homework 2
…
We have a dataset consisting of a lot of descriptive information about a number of home sales. Were going to focus on predicting sale prices and whether or not the down payment is at least 20%.

Data

The data is available at https://codowd.com/bigdata/hw/hw2/homes2004.csv.

There is a codebook, which describes all the variables, posted at https://codowd.com/bigdata/hw/hw2/homes2004code.txt.

Importing Data

library(tidyverse)
homes = read_csv("https://codowd.com/bigdata/hw/hw2/homes2004.csv")
homes

## # A tibble: 15,565 x 29
##    AMMORT EAPTBL ECOM1 ECOM2 EGREEN EJUNK ELOW1 ESFD  ETRANS EABAN HOWH  HOWN 
##     <dbl> <chr>  <chr> <chr> <chr>  <chr> <chr> <chr> <chr>  <chr> <chr> <chr>
##  1  50000 N      N     N     Y      N     N     Y     N      N     good  good 
##  2  70000 N      N     N     N      N     N     Y     N      N     good  bad  
##  3 117000 N      N     N     N      N     N     Y     N      N     good  good 
##  4 100000 N      N     N     N      N     Y     Y     N      N     good  good 
##  5 100000 N      Y     N     Y      N     N     Y     N      N     good  good 
##  6  96000 N      N     N     N      N     N     Y     N      N     good  good 
##  7 130500 N      N     N     Y      N     N     Y     N      N     good  good 
##  8 120000 N      N     N     Y      N     N     Y     N      N     good  good 
##  9 189900 N      N     N     Y      N     N     Y     N      N     good  good 
## 10  99000 N      N     N     Y      N     N     Y     N      N     good  good 
## #  with 15,555 more rows, and 17 more variables: ODORA <chr>, STRNA <chr>,
## #   ZINC2 <dbl>, PER <dbl>, ZADULT <dbl>, HHGRAD <chr>, NUNITS <dbl>,
## #   INTW <dbl>, METRO <chr>, STATE <chr>, LPRICE <dbl>, BATHS <dbl>,
## #   BEDRMS <dbl>, MATBUY <chr>, DWNPAY <chr>, VALUE <dbl>, FRSTHO <chr>
…
